name,method,branch
devtools,cran
crosstalk,cran
data.table,https://github.com/Rdatatable/data.table
DT,cran
farver,cran
htmltools,cran
ISOcodes,cran
jsonlite,cran
optparse,cran
plotly,cran
RColorBrewer,cran
us.census.geoheader,cran
wbstats,cran
